<?xml version="1.0" encoding="UTF-8"?>
<svg width="27px" height="27px" viewBox="0 0 27 27" version="1.1" xmlns="http://www.w3.org/2000/svg" xmlns:xlink="http://www.w3.org/1999/xlink">
    <!-- Generator: Sketch 61.2 (89653) - https://sketch.com -->
    <title>icon/settings</title>
    <desc>Created with Sketch.</desc>
    <g id="icon/settings" stroke="none" stroke-width="1" fill="none" fill-rule="evenodd">
        <path d="M13.5053214,24.4576904 C13.2605364,24.4576904 13.0476799,24.4468946 12.8028948,24.4253031 L12.2494679,25.5156726 C12.0791826,25.8611362 11.7279693,26.0446638 11.3341848,25.9906851 C10.9404002,25.9151149 10.6636867,25.6128343 10.6104725,25.2241877 L10.4508301,24.0042694 C10.0038314,23.8855163 9.57811835,23.7127845 9.16304811,23.5400527 L8.27969349,24.3605287 C7.99233716,24.6196264 7.59855258,24.6736051 7.24733929,24.4792818 C6.90676884,24.2741628 6.75776926,23.896312 6.83226905,23.5184612 L7.08769689,22.3093386 C6.72584078,22.0502409 6.36398467,21.7479603 6.02341422,21.4240881 L4.92720307,21.8991006 C4.55470413,22.0502409 4.18220519,21.9530793 3.91613453,21.6292072 C3.68199234,21.348518 3.63942103,20.9490757 3.84163474,20.6144078 L4.49084717,19.5564256 C4.23541933,19.1785748 4.02256279,18.7791325 3.82034908,18.3580987 L2.60706684,18.4228731 C2.22392507,18.4444646 1.87271179,18.2069584 1.74499787,17.8291076 C1.62792678,17.4620525 1.74499787,17.0626102 2.05363985,16.8358997 L3.00085143,16.0694024 C2.88378033,15.6375729 2.78799489,15.1733562 2.75606641,14.7091395 L1.60664112,14.3312887 C1.22349936,14.2017398 1,13.8886634 1,13.4892212 C1,13.1005746 1.22349936,12.7767025 1.60664112,12.6579494 L2.75606641,12.2800986 C2.78799489,11.8158819 2.88378033,11.3624609 3.00085143,10.9198356 L2.04299702,10.1533383 C1.74499787,9.92662781 1.62792678,9.52718552 1.74499787,9.17092619 C1.87271179,8.79307538 2.22392507,8.55556915 2.60706684,8.57716063 L3.82034908,8.63113932 C4.02256279,8.19930982 4.23541933,7.81066327 4.49084717,7.42201673 L3.84163474,6.3748302 C3.65006386,6.06175381 3.68199234,5.65151579 3.91613453,5.37082662 C4.18220519,5.0469545 4.55470413,4.94979286 4.92720307,5.10093318 L6.03405705,5.55435415 C6.36398467,5.24127777 6.72584078,4.94979286 7.08769689,4.66910369 L6.83226905,3.48157257 C6.75776926,3.08213029 6.90676884,2.71507522 7.23669647,2.52075194 C7.59855258,2.32642867 8.00297999,2.36961162 8.27969349,2.65030079 L9.16304811,3.44918536 C9.57811835,3.26565782 10.0144742,3.1145175 10.4508301,2.98496865 L10.6104725,1.77584606 C10.6636867,1.38719951 10.9404002,1.08491887 11.3235419,1.02014444 C11.7279693,0.955370017 12.0791826,1.13889755 12.2494679,1.47356541 L12.8028948,2.56393489 C13.0476799,2.54234342 13.2605364,2.54234342 13.5053214,2.54234342 C13.7288208,2.54234342 13.9416773,2.54234342 14.1864623,2.56393489 L14.7505321,1.46276968 C14.9101745,1.13889755 15.2613878,0.955370017 15.6551724,1.0093487 C16.0383142,1.08491887 16.3256705,1.38719951 16.3788846,1.77584606 L16.538527,2.98496865 C16.9748829,3.1145175 17.4112388,3.26565782 17.8263091,3.44918536 L18.7096637,2.63950505 C18.9863772,2.35881588 19.3801618,2.32642867 19.7420179,2.52075194 C20.0825883,2.71507522 20.2315879,3.08213029 20.1570881,3.48157257 L19.9016603,4.66910369 C20.2635164,4.94979286 20.6253725,5.24127777 20.9446573,5.55435415 L22.0621541,5.10093318 C22.434653,4.94979286 22.807152,5.0469545 23.0732226,5.37082662 C23.3073648,5.65151579 23.3392933,6.06175381 23.1477224,6.3748302 L22.49851,7.42201673 C22.7539378,7.81066327 22.9667944,8.19930982 23.1690081,8.63113932 L24.3822903,8.57716063 C24.7654321,8.55556915 25.1166454,8.79307538 25.2443593,9.17092619 C25.3614304,9.52718552 25.2443593,9.92662781 24.9357173,10.1533383 L23.9991486,10.9090399 C24.1055768,11.3624609 24.2013623,11.8158819 24.2439336,12.2800986 L25.382716,12.6579494 C25.7658578,12.7767025 26,13.1005746 26,13.4892212 C26,13.8886634 25.7658578,14.2017398 25.382716,14.3312887 L24.2439336,14.7091395 C24.2013623,15.1733562 24.1055768,15.6375729 23.9991486,16.0694024 L24.9463602,16.8358997 C25.2443593,17.0626102 25.3720732,17.4728483 25.2443593,17.8291076 C25.1166454,18.2069584 24.7654321,18.4444646 24.3822903,18.4228731 L23.1690081,18.3580987 C22.9667944,18.7791325 22.7539378,19.1785748 22.49851,19.5564256 L23.1477224,20.6036121 C23.3499361,20.9490757 23.3073648,21.348518 23.0732226,21.6292072 C22.807152,21.9530793 22.434653,22.0502409 22.0727969,21.8991006 L20.965943,21.4240881 C20.6253725,21.7479603 20.2635164,22.0502409 19.9016603,22.3093386 L20.1570881,23.5184612 C20.2315879,23.896312 20.0825883,24.2741628 19.7526607,24.4684861 C19.3908046,24.6736051 18.99702,24.6196264 18.7096637,24.349733 L17.8263091,23.5400527 C17.4112388,23.7127845 16.9855258,23.8855163 16.538527,24.0042694 L16.3788846,25.2241877 C16.3256705,25.6128343 16.048957,25.9151149 15.6764581,25.9798893 C15.2613878,26.0446638 14.8995317,25.8611362 14.7398893,25.5048769 L14.1864623,24.4253031 C13.9416773,24.4468946 13.7288208,24.4576904 13.5053214,24.4576904 Z M16.4746701,12.344873 L21.5938697,12.344873 C21.0723712,8.19930982 17.7305236,5.02536302 13.4946786,5.02536302 C12.3133248,5.02536302 11.195828,5.27366498 10.1954023,5.71629022 L12.7603235,10.1965212 C13.037037,10.1317468 13.2179651,10.1209511 13.3669647,10.1209511 C14.697318,10.1209511 15.8999574,10.8982442 16.4746701,12.344873 Z M5.32098765,13.5000169 C5.32098765,16.1341768 6.42784163,18.4660561 8.22647935,20.0206423 L10.8765432,15.5943899 C10.3124734,14.892667 10.0783312,14.2233313 10.0783312,13.5108126 C10.0783312,12.7874982 10.333759,12.0533881 10.8765432,11.3732566 L8.31162197,6.90382133 C6.47041294,8.44761178 5.32098765,10.822674 5.32098765,13.5000169 Z M12.1004683,13.5108126 C12.1004683,14.2125356 12.7071094,14.8063011 13.3776075,14.8063011 C14.0800341,14.8063011 14.6441039,14.2125356 14.6441039,13.5108126 C14.6441039,12.7874982 14.0800341,12.2369156 13.3776075,12.2369156 C12.6964666,12.2369156 12.1004683,12.7874982 12.1004683,13.5108126 Z M13.4946786,21.963875 C17.7411665,21.963875 21.0936569,18.7899282 21.6045126,14.6227736 L16.4746701,14.6227736 C15.8999574,16.1125853 14.697318,16.8898784 13.3669647,16.8898784 C13.1966794,16.8898784 13.0051086,16.8790827 12.7283951,16.825104 L10.088974,21.2189691 C11.1213282,21.7047773 12.2707535,21.963875 13.4946786,21.963875 Z" id="settings" fill="#000000"></path>
    </g>
</svg>