<?xml version="1.0" encoding="UTF-8"?>
<svg width="27px" height="27px" viewBox="0 0 27 27" version="1.1" xmlns="http://www.w3.org/2000/svg" xmlns:xlink="http://www.w3.org/1999/xlink">
    <!-- Generator: Sketch 61.2 (89653) - https://sketch.com -->
    <title>icon/treatment</title>
    <desc>Created with Sketch.</desc>
    <g id="icon/treatment" stroke="none" stroke-width="1" fill="none" fill-rule="evenodd">
        <path d="M19.2170499,26 C21.6466629,26 23,24.6189397 23,22.117807 L23,12.2437698 C23,10.5256004 22.7335951,9.65564114 21.6573191,8.54644314 L16.6275939,3.35931128 C15.5726304,2.27186226 14.688166,2 13.0790802,2 L7.78295008,2 C5.34268087,2 4,3.38106026 4,5.88219302 L4,22.117807 C4,24.6189397 5.34268087,26 7.78295008,26 L19.2170499,26 Z M18.844083,23.0856366 L8.1452608,23.0856366 C7.26079641,23.0856366 6.85586091,22.628908 6.85586091,21.7806978 L6.85586091,6.21930222 C6.85586091,5.37109198 7.26079641,4.91436339 8.1452608,4.91436339 L12.2798654,4.91436339 L12.2798654,10.1341187 C12.2798654,12.0806525 13.174986,12.9941097 15.0824453,12.9941097 L20.1441391,12.9941097 L20.1441391,21.7806978 C20.1441391,22.628908 19.7392036,23.0856366 18.844083,23.0856366 Z M19.9416713,10.6234708 L15.2849131,10.6234708 C14.8160404,10.6234708 14.5922602,10.405981 14.5922602,9.91662891 L14.5922602,5.1209787 L19.9416713,10.6234708 Z M16.9472799,16.9959221 C17.3522154,16.9959221 17.6505889,16.6696874 17.6505889,16.2564567 C17.6505889,15.8649751 17.3522154,15.5496149 16.9472799,15.5496149 L9.92484577,15.5496149 C9.50925407,15.5496149 9.20022434,15.8649751 9.20022434,16.2564567 C9.20022434,16.6696874 9.50925407,16.9959221 9.92484577,16.9959221 L16.9472799,16.9959221 Z M16.9472799,20.3452651 C17.3522154,20.3452651 17.6505889,20.0299048 17.6505889,19.6275487 C17.6505889,19.2143181 17.3522154,18.8989579 16.9472799,18.8989579 L9.92484577,18.8989579 C9.50925407,18.8989579 9.20022434,19.2143181 9.20022434,19.6275487 C9.20022434,20.0299048 9.50925407,20.3452651 9.92484577,20.3452651 L16.9472799,20.3452651 Z" id="treatment" fill="#45AE4D" fill-rule="nonzero"></path>
    </g>
</svg>